<?xml version="1.0" encoding="utf-8"?>
<!-- Generator: Adobe Illustrator 19.2.1, SVG Export Plug-In . SVG Version: 6.00 Build 0)  -->
<svg version="1.1" id="Layer_1" xmlns="http://www.w3.org/2000/svg" xmlns:xlink="http://www.w3.org/1999/xlink" x="0px" y="0px"
	 width="134px" height="64px" viewBox="0 0 134 64" enable-background="new 0 0 134 64" xml:space="preserve">
<g>
	<g id="Regular_3_">
		<g>
			<path fill="#231F20" d="M9.127,20.412c4.361,0,6.739,1.694,6.739,5.68c0,3.222-1.156,4.75-3.006,5.547
				c2.048,0.664,3.799,1.993,3.799,5.414c0,4.95-2.775,6.51-7.037,6.51H1V20.412H9.127z M3.015,22.305v8.57h6.343
				c3.139,0,4.427-1.595,4.427-4.584c0-2.857-1.52-3.986-4.724-3.986H3.015z M3.015,32.735v8.935h6.541
				c3.006,0,5.021-1.096,5.021-4.683c0-4.019-3.502-4.252-5.22-4.252H3.015z"/>
			<path fill="#231F20" d="M21.513,20.412h13.743v1.927H23.528v8.47h9.746v1.927h-9.746v8.902h11.728v1.926H21.513V20.412z"/>
			<path fill="#231F20" d="M52.366,22.538c0,0-4.394-0.531-6.31-0.531c-3.27,0-5.154,1.162-5.154,3.986
				c0,3.388,1.685,3.886,5.682,4.75c4.294,0.963,6.442,1.993,6.442,6.112c0,5.082-2.511,6.975-7.07,6.975
				c-2.511,0-7.037-0.631-7.037-0.631l0.198-1.893c0,0,4.46,0.565,6.805,0.565c3.271,0,5.021-1.362,5.021-4.916
				c0-2.89-1.421-3.554-5.154-4.318c-4.658-1.063-6.971-1.96-6.971-6.577c0-4.318,2.841-6.045,7.235-6.045
				c2.544,0,6.475,0.631,6.475,0.631L52.366,22.538z"/>
			<path fill="#231F20" d="M59.897,35.526v8.038h-2.015V20.412h8.358c4.922,0,7.136,2.292,7.136,7.241
				c0,4.949-2.213,7.873-7.136,7.873H59.897z M66.24,33.566c3.568,0,5.055-2.259,5.055-5.913c0-3.621-1.487-5.315-5.055-5.315
				h-6.343v11.227H66.24z"/>
			<path fill="#231F20" d="M76.677,32.104c0-7.606,1.883-12.024,8.953-12.024s8.986,4.351,8.986,12.024
				c0,7.939-1.883,11.792-8.986,11.792C78.527,43.896,76.677,39.81,76.677,32.104z M92.501,32.104
				c0-6.411-1.288-10.065-6.871-10.065c-5.616,0-6.838,3.621-6.838,10.065c0,6.477,1.156,9.832,6.838,9.832
				C91.345,41.936,92.501,38.814,92.501,32.104z"/>
			<path fill="#231F20" d="M105.582,33.134l-3.997,0.066v10.363h-2.015V20.412h2.015V31.24l3.931-0.066l6.376-10.762h2.379
				l-6.937,11.593l7.367,11.559h-2.445L105.582,33.134z"/>
			<path fill="#231F20" d="M119.257,20.412H133v1.927h-11.728v8.47h9.746v1.927h-9.746v8.902H133v1.926h-13.743V20.412z"/>
		</g>
		<g>
			<path fill="#231F20" d="M62.299,54.973l1.222,4.938h0.154l1.431-4.827h0.705l1.421,4.827h0.165l1.222-4.938h0.672l-1.388,5.536
				h-1.156l-1.3-4.562l-1.299,4.562h-1.145l-1.376-5.536H62.299z"/>
			<path fill="#231F20" d="M74.445,59.911l0.022,0.554c0,0-1.244,0.155-2.103,0.155c-1.641-0.011-2.136-1.008-2.136-2.857
				c0-2.137,0.925-2.89,2.269-2.89c1.421,0,2.169,0.753,2.169,2.613l-0.022,0.532h-3.744c0,1.306,0.374,1.993,1.531,1.993
				C73.234,60.011,74.445,59.911,74.445,59.911z M74.005,57.464c0-1.461-0.474-2.004-1.509-2.004c-1.002,0-1.597,0.565-1.597,2.004
				H74.005z"/>
			<path fill="#231F20" d="M80.567,57.641c0,2.137-0.551,2.979-2.566,2.979c-0.694,0-1.773-0.111-1.773-0.111v-7.994h0.661v2.746
				c0,0,0.859-0.387,1.718-0.387C80.104,54.873,80.567,55.681,80.567,57.641z M79.884,57.652c0-1.517-0.264-2.17-1.321-2.17
				c-0.826,0-1.674,0.354-1.674,0.354v4.119c0,0,0.771,0.067,1.101,0.067C79.62,60.022,79.884,59.269,79.884,57.652z"/>
			<path fill="#231F20" d="M88.252,55.648c0,0-1.189-0.177-1.905-0.177c-0.694,0-1.3,0.188-1.3,0.941
				c0,0.576,0.275,0.753,1.432,0.93c1.442,0.232,1.982,0.498,1.982,1.561c0,1.296-0.804,1.716-2.125,1.716
				c-0.672,0-1.905-0.2-1.905-0.2l0.044-0.587c0,0,1.244,0.188,1.806,0.188c0.958,0,1.509-0.222,1.509-1.085
				c0-0.664-0.33-0.797-1.509-0.986c-1.321-0.21-1.905-0.454-1.905-1.517c0-1.207,0.98-1.561,1.938-1.561
				c0.837,0,1.96,0.188,1.96,0.188L88.252,55.648z"/>
			<path fill="#231F20" d="M90.113,54.973h0.661v0.421c0,0,0.859-0.52,1.74-0.52c1.377,0,1.96,0.852,1.96,2.801
				c0,2.126-0.683,2.945-2.379,2.945c-0.55,0-1.134-0.1-1.321-0.144V63h-0.661V54.973z M90.774,55.969v3.92
				c0.187,0.033,0.771,0.133,1.288,0.133c1.288,0,1.729-0.654,1.729-2.37c0-1.606-0.496-2.181-1.343-2.181
				C91.644,55.471,90.774,55.969,90.774,55.969z"/>
			<path fill="#231F20" d="M99.869,59.911l0.022,0.554c0,0-1.244,0.155-2.103,0.155c-1.641-0.011-2.136-1.008-2.136-2.857
				c0-2.137,0.925-2.89,2.269-2.89c1.421,0,2.169,0.753,2.169,2.613l-0.022,0.532h-3.744c0,1.306,0.374,1.993,1.531,1.993
				C98.658,60.011,99.869,59.911,99.869,59.911z M99.428,57.464c0-1.461-0.474-2.004-1.509-2.004c-1.002,0-1.597,0.565-1.597,2.004
				H99.428z"/>
			<path fill="#231F20" d="M104.934,55.006l-0.022,0.587c0,0-0.881-0.1-1.3-0.1c-1.321,0-1.707,0.565-1.707,2.148
				c0,1.716,0.275,2.358,1.707,2.358c0.418,0,1.311-0.1,1.311-0.1l0.033,0.587c0,0-0.991,0.133-1.465,0.133
				c-1.784,0-2.257-0.797-2.257-2.979c0-2.026,0.628-2.768,2.269-2.768C103.976,54.873,104.934,55.006,104.934,55.006z"/>
			<path fill="#231F20" d="M106.376,52.758h0.661v0.831h-0.661V52.758z M106.376,54.973h0.661v5.536h-0.661V54.973z"/>
			<path fill="#231F20" d="M112.664,59.534c0.033,0.343,0.352,0.454,0.716,0.498l-0.033,0.576c-0.595,0-0.969-0.111-1.244-0.421
				c0,0-0.991,0.432-2.114,0.432c-0.925,0-1.465-0.587-1.465-1.672c0-1.019,0.496-1.517,1.619-1.616l1.872-0.188v-0.498
				c0-0.797-0.375-1.14-1.057-1.14c-0.804,0-2.092,0.177-2.092,0.177l-0.044-0.598c0,0,1.3-0.21,2.158-0.21
				c1.145,0,1.685,0.554,1.685,1.771V59.534z M110.219,57.863c-0.738,0.066-1.013,0.465-1.013,1.074
				c0,0.709,0.319,1.096,0.859,1.096c0.936,0,1.949-0.377,1.949-0.377v-1.96L110.219,57.863z"/>
			<path fill="#231F20" d="M114.656,52.515h0.661v7.994h-0.661V52.515z"/>
			<path fill="#231F20" d="M117.211,52.758h0.661v0.831h-0.661V52.758z M117.211,54.973h0.661v5.536h-0.661V54.973z"/>
			<path fill="#231F20" d="M123.3,55.648c0,0-1.189-0.177-1.905-0.177c-0.694,0-1.3,0.188-1.3,0.941c0,0.576,0.275,0.753,1.432,0.93
				c1.442,0.232,1.982,0.498,1.982,1.561c0,1.296-0.804,1.716-2.125,1.716c-0.672,0-1.905-0.2-1.905-0.2l0.044-0.587
				c0,0,1.244,0.188,1.806,0.188c0.958,0,1.509-0.222,1.509-1.085c0-0.664-0.33-0.797-1.509-0.986
				c-1.321-0.21-1.905-0.454-1.905-1.517c0-1.207,0.98-1.561,1.938-1.561c0.837,0,1.96,0.188,1.96,0.188L123.3,55.648z"/>
			<path fill="#231F20" d="M125.953,55.582v2.69c0,1.384,0.088,1.738,0.87,1.738c0.308,0,1.024-0.077,1.024-0.077l0.033,0.587
				c0,0-0.727,0.11-1.112,0.11c-1.079,0-1.476-0.409-1.476-2.004v-3.045h-0.815v-0.609h0.815v-1.738h0.661v1.738h1.839v0.609
				H125.953z"/>
			<path fill="#231F20" d="M132.681,55.648c0,0-1.189-0.177-1.905-0.177c-0.694,0-1.3,0.188-1.3,0.941
				c0,0.576,0.275,0.753,1.432,0.93c1.442,0.232,1.982,0.498,1.982,1.561c0,1.296-0.804,1.716-2.125,1.716
				c-0.672,0-1.905-0.2-1.905-0.2l0.044-0.587c0,0,1.244,0.188,1.806,0.188c0.958,0,1.509-0.222,1.509-1.085
				c0-0.664-0.33-0.797-1.509-0.986c-1.322-0.21-1.905-0.454-1.905-1.517c0-1.207,0.98-1.561,1.938-1.561
				c0.837,0,1.96,0.188,1.96,0.188L132.681,55.648z"/>
		</g>
	</g>
	<g id="_x34__Circles_3_">
		<g>
			<g>
				<path fill="#D6DE23" d="M127.82,1c-1.538,0-2.918,0.678-3.864,1.751c0.806,0.915,1.296,2.118,1.296,3.437
					s-0.49,2.522-1.296,3.437c0.945,1.074,2.325,1.751,3.864,1.751c2.85,0,5.16-2.323,5.16-5.188C132.98,3.323,130.67,1,127.82,1z"
					/>
				<path fill="#EC297B" d="M123.956,2.751C123.011,1.678,121.631,1,120.093,1c-1.538,0-2.918,0.678-3.864,1.751
					c0.806,0.915,1.296,2.118,1.296,3.437c0,1.319-0.49,2.522-1.296,3.437c0.945,1.074,2.325,1.751,3.864,1.751
					c1.538,0,2.918-0.678,3.864-1.751c-0.806-0.915-1.296-2.118-1.296-3.437S123.15,3.666,123.956,2.751z"/>
				<path fill="#C9342C" d="M123.956,2.751c-0.806,0.915-1.296,2.118-1.296,3.437s0.49,2.522,1.296,3.437
					c0.806-0.915,1.296-2.118,1.296-3.437S124.762,3.666,123.956,2.751z"/>
			</g>
			<path fill="#00BCF1" d="M116.229,2.751C115.284,1.678,113.903,1,112.365,1c-1.538,0-2.918,0.678-3.864,1.751
				c0.806,0.915,1.296,2.118,1.296,3.437s-0.49,2.522-1.296,3.437c0.945,1.074,2.325,1.751,3.864,1.751
				c1.538,0,2.918-0.678,3.864-1.751c-0.806-0.915-1.296-2.118-1.296-3.437C114.933,4.869,115.423,3.666,116.229,2.751z"/>
			<path fill="#663780" d="M116.229,2.751c-0.806,0.915-1.296,2.118-1.296,3.437c0,1.319,0.49,2.522,1.296,3.437
				c0.806-0.915,1.296-2.118,1.296-3.437C117.525,4.869,117.035,3.666,116.229,2.751z"/>
		</g>
		<path fill="#FFC10E" d="M108.501,2.751C107.556,1.678,106.176,1,104.638,1c-2.85,0-5.16,2.323-5.16,5.188
			c0,2.865,2.31,5.188,5.16,5.188c1.538,0,2.918-0.678,3.864-1.751c-0.806-0.915-1.296-2.118-1.296-3.437
			S107.695,3.666,108.501,2.751z"/>
		<path fill="#5B9545" d="M108.501,2.751c-0.806,0.915-1.296,2.118-1.296,3.437s0.49,2.522,1.296,3.437
			c0.806-0.915,1.296-2.118,1.296-3.437S109.307,3.666,108.501,2.751z"/>
	</g>
</g>
</svg>
