<?xml version="1.0" encoding="utf-8"?>
<!-- Generator: Adobe Illustrator 19.2.1, SVG Export Plug-In . SVG Version: 6.00 Build 0)  -->
<svg version="1.1" id="Layer_1" xmlns="http://www.w3.org/2000/svg" xmlns:xlink="http://www.w3.org/1999/xlink" x="0px" y="0px"
	 width="128px" height="128px" viewBox="0 0 128 128" enable-background="new 0 0 128 128" xml:space="preserve">
<path fill="#010202" d="M64,1C29.224,1,1,29.224,1,64s28.224,63,63,63s63-28.224,63-63S98.776,1,64,1z M64,19.9
	c10.458,0,18.9,8.442,18.9,18.9S74.458,57.7,64,57.7s-18.9-8.442-18.9-18.9S53.542,19.9,64,19.9z M64,109.36
	c-15.75,0-29.673-8.064-37.8-20.286C26.389,76.537,51.4,69.67,64,69.67c12.537,0,37.611,6.867,37.8,19.404
	C93.673,101.296,79.75,109.36,64,109.36z"/>
</svg>
