<?xml version="1.0" encoding="utf-8"?>
<!-- Generator: Adobe Illustrator 18.1.0, SVG Export Plug-In . SVG Version: 6.00 Build 0)  -->
<svg version="1.1" id="Layer_1" xmlns="http://www.w3.org/2000/svg" xmlns:xlink="http://www.w3.org/1999/xlink" x="0px" y="0px"
	 width="128px" height="128px" viewBox="0 0 128 128" enable-background="new 0 0 128 128" xml:space="preserve">
<g>
	<path d="M89.6,125.3L29.8,68.1c-2.4-2.3-2.4-5.9,0-8.2L89.6,2.7c2.4-2.3,6.2-2.3,8.6,0c2.4,2.3,2.4,5.9,0,8.2L42.7,64l55.5,53.1
		c2.4,2.3,2.4,5.9,0,8.2C95.8,127.6,92,127.6,89.6,125.3z"/>
</g>
</svg>
