<?xml version="1.0" encoding="utf-8"?>
<!-- Generator: Adobe Illustrator 19.0.0, SVG Export Plug-In . SVG Version: 6.00 Build 0)  -->
<svg version="1.1" id="Layer_1" xmlns="http://www.w3.org/2000/svg" xmlns:xlink="http://www.w3.org/1999/xlink" x="0px" y="0px"
	 width="128px" height="128px" viewBox="0 0 128 128" style="enable-background:new 0 0 128 128;" xml:space="preserve">
<polygon id="XMLID_3_" points="116,29.4 98.3,11.7 63.9,46.2 29.7,12 12,29.7 46.2,63.9 12,98 29.7,115.7 63.9,81.5 98.3,116 
	116,98.3 81.5,63.9 "/>
</svg>
