<?xml version="1.0" encoding="utf-8"?>
<!-- Generator: Adobe Illustrator 19.2.0, SVG Export Plug-In . SVG Version: 6.00 Build 0)  -->
<svg version="1.1" id="Layer_1" xmlns="http://www.w3.org/2000/svg" xmlns:xlink="http://www.w3.org/1999/xlink" x="0px" y="0px"
	 width="128px" height="128px" viewBox="0 0 128 128" enable-background="new 0 0 128 128" xml:space="preserve">
<g>
	<path d="M21.587,112.998c0,7.699,6.36,14.002,14.137,14.002h56.552c7.774,0,14.137-6.304,14.137-14.002V29H21.587V112.998z
		 M38.975,63.158l9.967-9.866L63.998,68.13l14.988-14.838l9.967,9.866L73.965,78l14.988,14.838l-9.967,9.87L63.998,87.866
		l-14.985,14.842l-9.967-9.87L54.031,78L38.975,63.158z M88.74,8.001L81.671,1H46.329L39.26,8.001H14.518v13.998h98.963V8.001H88.74
		z"/>
</g>
</svg>
