<?xml version="1.0" encoding="utf-8"?>
<!-- Generator: Adobe Illustrator 19.2.1, SVG Export Plug-In . SVG Version: 6.00 Build 0)  -->
<svg version="1.1" id="Layer_1" xmlns="http://www.w3.org/2000/svg" xmlns:xlink="http://www.w3.org/1999/xlink" x="0px" y="0px"
	 width="128px" height="128px" viewBox="0 0 128 128" enable-background="new 0 0 128 128" xml:space="preserve">
<path fill="#010202" d="M26.5,1c-6.875,0-12.437,5.67-12.437,12.6L14,114.4c0,6.93,5.563,12.6,12.437,12.6H101.5
	c6.875,0,12.5-5.67,12.5-12.6V38.8L76.5,1H26.5z M70.25,45.1V10.45l34.375,34.65H70.25z"/>
</svg>
