<?xml version="1.0" encoding="utf-8"?>
<!-- Generator: Adobe Illustrator 19.2.1, SVG Export Plug-In . SVG Version: 6.00 Build 0)  -->
<svg version="1.1" id="Layer_1" xmlns="http://www.w3.org/2000/svg" xmlns:xlink="http://www.w3.org/1999/xlink" x="0px" y="0px"
	 width="128px" height="128px" viewBox="0 0 128 128" enable-background="new 0 0 128 128" xml:space="preserve">
<path fill="#010202" d="M113,1H14.93C7.16,1,1.07,7.23,1.07,15L1,113c0,7.7,6.16,14,13.93,14H113c7.7,0,14-6.3,14-14V15
	C127,7.23,120.7,1,113,1z M113,85H85c0,11.62-9.45,21-21,21s-21-9.38-21-21H14.93V15H113V85z"/>
</svg>
