<?xml version="1.0" encoding="utf-8"?>
<!-- Generator: Adobe Illustrator 19.2.1, SVG Export Plug-In . SVG Version: 6.00 Build 0)  -->
<svg version="1.1" id="Layer_1" xmlns="http://www.w3.org/2000/svg" xmlns:xlink="http://www.w3.org/1999/xlink" x="0px" y="0px"
	 width="128px" height="128px" viewBox="0 0 128 128" enable-background="new 0 0 128 128" xml:space="preserve">
<path fill="#010202" d="M69.727,61.176h40.091v8.471H69.727V61.176z M69.727,47.059h40.091v8.471H69.727V47.059z M69.727,75.294
	h40.091v8.471H69.727V75.294z M115.545,16H12.455C6.155,16,1,21.082,1,27.294v73.412C1,106.918,6.155,112,12.455,112h103.091
	c6.3,0,11.455-5.082,11.455-11.294V27.294C127,21.082,121.845,16,115.545,16z M115.545,100.706H64V27.294h51.545V100.706z"/>
</svg>
