<?xml version="1.0" encoding="utf-8"?>
<!-- Generator: Adobe Illustrator 19.2.1, SVG Export Plug-In . SVG Version: 6.00 Build 0)  -->
<svg version="1.1" id="Layer_1" xmlns="http://www.w3.org/2000/svg" xmlns:xlink="http://www.w3.org/1999/xlink" x="0px" y="0px"
	 width="128px" height="128px" viewBox="0 0 128 128" enable-background="new 0 0 128 128" xml:space="preserve">
<path fill="#010202" d="M86.909,58.286c9.507,0,17.125-7.657,17.125-17.143S96.416,24,86.909,24s-17.182,7.657-17.182,17.143
	S77.402,58.286,86.909,58.286z M41.091,58.286c9.507,0,17.125-7.657,17.125-17.143S50.598,24,41.091,24s-17.182,7.657-17.182,17.143
	S31.584,58.286,41.091,58.286z M41.091,69.714C27.746,69.714,1,76.4,1,89.714V104h80.182V89.714
	C81.182,76.4,54.435,69.714,41.091,69.714z M86.909,69.714c-1.661,0-3.551,0.114-5.555,0.286c6.644,4.8,11.283,11.257,11.283,19.714
	V104H127V89.714C127,76.4,100.254,69.714,86.909,69.714z"/>
</svg>
