<?xml version="1.0" encoding="utf-8"?>
<!-- Generator: Adobe Illustrator 19.2.1, SVG Export Plug-In . SVG Version: 6.00 Build 0)  -->
<svg version="1.1" id="Layer_1" xmlns="http://www.w3.org/2000/svg" xmlns:xlink="http://www.w3.org/1999/xlink" x="0px" y="0px"
	 width="128px" height="128px" viewBox="0 0 128 128" enable-background="new 0 0 128 128" xml:space="preserve">
<path fill="#010202" d="M127,40.667c0,6.417-5.155,11.667-11.455,11.667c-1.031,0-2.005-0.117-2.921-0.408L92.235,72.633
	c0.286,0.933,0.401,1.983,0.401,3.033c0,6.417-5.155,11.667-11.455,11.667c-6.3,0-11.455-5.25-11.455-11.667
	c0-1.05,0.115-2.1,0.401-3.033L55.524,57.758c-0.916,0.292-1.947,0.408-2.978,0.408s-2.062-0.117-2.978-0.408l-26.059,26.6
	c0.286,0.933,0.401,1.925,0.401,2.975C23.909,93.75,18.755,99,12.455,99S1,93.75,1,87.333c0-6.417,5.155-11.667,11.455-11.667
	c1.031,0,2.005,0.117,2.921,0.408l26.116-26.542c-0.286-0.933-0.401-1.983-0.401-3.033c0-6.417,5.155-11.667,11.455-11.667
	S64,40.083,64,46.5c0,1.05-0.115,2.1-0.401,3.033l14.605,14.875C79.12,64.117,80.151,64,81.182,64c1.031,0,2.062,0.117,2.978,0.408
	l20.332-20.767c-0.286-0.933-0.401-1.925-0.401-2.975c0-6.417,5.155-11.667,11.455-11.667S127,34.25,127,40.667z"/>
</svg>
