<?xml version="1.0" encoding="utf-8"?>
<!-- Generator: Adobe Illustrator 19.1.0, SVG Export Plug-In . SVG Version: 6.00 Build 0)  -->
<!DOCTYPE svg PUBLIC "-//W3C//DTD SVG 1.1//EN" "http://www.w3.org/Graphics/SVG/1.1/DTD/svg11.dtd">
<svg version="1.1" id="Layer_1" xmlns="http://www.w3.org/2000/svg" xmlns:xlink="http://www.w3.org/1999/xlink" x="0px" y="0px"
	 width="256px" height="256px" viewBox="0 0 256 256" enable-background="new 0 0 256 256" xml:space="preserve">
<g>
	<path d="M223.628,172.349c-17.845,0-32.367-14.522-32.367-32.372c0-17.845,14.522-32.367,32.367-32.367
		c17.85,0,32.372,14.522,32.372,32.367C256,157.827,241.478,172.349,223.628,172.349z M223.628,124.447
		c-8.56,0-15.524,6.964-15.524,15.524s6.964,15.529,15.524,15.529c8.56,0,15.529-6.964,15.529-15.529
		C239.151,131.411,232.187,124.447,223.628,124.447z M95.034,183.802c-0.588-4.606,2.692-8.814,7.298-9.408l0,0
		c4.606-0.562,8.819,2.724,9.408,7.33l0,0l0,0l0,0c0.562,4.632-2.692,8.814-7.33,9.402l0,0c-0.339,0.032-0.7,0.058-1.039,0.058l0,0
		C99.189,191.185,95.537,188.069,95.034,183.802z M89.506,157.774L89.506,157.774c-1.352-4.463,1.177-9.153,5.645-10.499l0,0
		c4.436-1.352,9.121,1.177,10.499,5.644l0,0c1.32,4.436-1.177,9.153-5.645,10.468l0,0c-0.816,0.254-1.627,0.366-2.443,0.366l0,0
		C93.942,163.757,90.597,161.425,89.506,157.774z M79.679,133.044L79.679,133.044c-2.051-4.155-0.366-9.211,3.79-11.289l0,0
		c4.182-2.078,9.238-0.392,11.316,3.79l0,0l0,0l0,0c2.046,4.155,0.366,9.206-3.79,11.284l0,0c-1.208,0.588-2.496,0.875-3.763,0.875
		l0,0C84.142,137.703,81.163,135.991,79.679,133.044z M65.868,110.302L65.868,110.302c-2.751-3.763-1.913-9.037,1.855-11.761l0,0
		c3.763-2.751,9.01-1.908,11.761,1.823l0,0c2.751,3.763,1.908,9.042-1.855,11.793l0,0c-1.484,1.065-3.228,1.601-4.94,1.601l0,0
		C70.081,113.757,67.527,112.549,65.868,110.302z M48.436,90.172c-3.313-3.254-3.371-8.591-0.111-11.93l0,0
		c3.228-3.313,8.56-3.366,11.904-0.138l0,0c3.313,3.259,3.371,8.591,0.143,11.93l0,0c-1.659,1.685-3.848,2.528-6.037,2.528l0,0
		C52.194,92.562,50.09,91.778,48.436,90.172z M27.909,73.191c-3.816-2.639-4.77-7.886-2.131-11.708l0,0
		c2.666-3.816,7.918-4.77,11.734-2.131l0,0c3.816,2.666,4.77,7.918,2.104,11.734l0,0c-1.627,2.358-4.24,3.62-6.906,3.62l0,0
		C31.057,74.707,29.372,74.23,27.909,73.191z M4.838,59.914c-4.214-1.993-6.005-6.991-4.044-11.204l0,0
		c1.966-4.214,6.991-6.037,11.204-4.07l0,0c0,0,0,0,0,0.027l0,0c4.214,1.966,6.005,6.991,4.044,11.204l0,0
		c-1.431,3.032-4.463,4.828-7.637,4.828l0,0C7.223,60.699,5.988,60.444,4.838,59.914z M98.712,209.682
		c-3.286-3.313-3.254-8.644,0.032-11.93l0,0l0,0l0,0c3.313-3.26,8.644-3.26,11.93,0.058l0,0c3.26,3.313,3.228,8.618-0.058,11.898
		l0,0c-1.627,1.627-3.79,2.443-5.92,2.443l0,0C102.501,212.152,100.339,211.341,98.712,209.682z M119.292,190.597
		c-2.698-3.821-1.77-9.068,2.025-11.766l0,0c3.816-2.666,9.068-1.738,11.734,2.051l0,0c2.692,3.79,1.77,9.068-2.019,11.734l0,0
		c-1.489,1.039-3.169,1.542-4.86,1.542l0,0C123.532,194.158,120.919,192.897,119.292,190.597z M142.787,175.211
		c-2.019-4.214-0.254-9.238,3.959-11.231l0,0c4.182-2.019,9.206-0.254,11.231,3.959l0,0c1.993,4.182,0.223,9.211-3.959,11.231l0,0
		c-1.177,0.562-2.412,0.816-3.646,0.816l0,0C147.223,179.981,144.223,178.211,142.787,175.211z M168.476,163.927
		c-1.261-4.463,1.32-9.127,5.782-10.415l0,0l0,0l0,0c4.463-1.293,9.127,1.293,10.415,5.782l0,0
		c1.293,4.463-1.293,9.127-5.756,10.415h-0.027c-0.758,0.223-1.542,0.307-2.306,0.307l0,0
		C172.912,170.017,169.541,167.632,168.476,163.927z"/>
</g>
</svg>
