<?xml version="1.0" encoding="utf-8"?>
<!-- Generator: Adobe Illustrator 19.1.0, SVG Export Plug-In . SVG Version: 6.00 Build 0)  -->
<!DOCTYPE svg PUBLIC "-//W3C//DTD SVG 1.1//EN" "http://www.w3.org/Graphics/SVG/1.1/DTD/svg11.dtd">
<svg version="1.1" id="Layer_1" xmlns="http://www.w3.org/2000/svg" xmlns:xlink="http://www.w3.org/1999/xlink" x="0px" y="0px"
	 width="256px" height="256px" viewBox="0 0 256 256" enable-background="new 0 0 256 256" xml:space="preserve">
<g>
	<g>
		<path d="M39.042,128.062c6.304,3.911,11.238,8.283,14.788,13.128c3.551,4.839,6.038,11.013,7.462,18.522
			c1.418,7.509,2.133,17.122,2.133,28.856c0,8.792,0.201,15.279,0.603,19.456c0.396,4.171,1.199,7.35,2.399,9.524
			c1.199,2.174,2.641,3.598,4.331,4.266c1.684,0.668,4.573,1.312,8.662,1.932c3.374,0.443,6.174,2.092,8.396,4.933
			c2.222,2.836,3.332,6.57,3.332,11.196c0,10.747-6.529,16.124-19.586,16.124c-8.088,0-15.302-1.684-21.66-5.057
			c-6.351-3.38-11.261-8.153-14.723-14.328c-3.462-6.174-5.241-13.258-5.329-21.258c-0.266-13.506-0.532-24.342-0.798-32.513
			c-0.266-8.177-0.668-13.459-1.199-15.864c-1.335-5.95-3.315-10.44-5.932-13.459c-2.623-3.019-6.044-5.837-10.263-8.461
			c-4.219-2.617-7.22-4.975-8.992-7.06C0.892,135.914,0,132.6,0,128.068c0-6.57,2.576-11.503,7.734-14.794
			c6.399-3.994,10.948-7.391,13.66-10.192s4.62-6.399,5.731-10.794c1.111-4.396,1.749-9.193,1.932-14.393
			c0.177-5.199,0.443-17.701,0.798-37.518c0.266-12.26,4.154-22.05,11.663-29.382S59.041,0,71.567,0
			c13.057,0,19.586,5.288,19.586,15.858c0,4.798-1.093,8.573-3.267,11.326c-2.18,2.753-4.998,4.354-8.461,4.798
			c-5.152,0.715-8.75,1.778-10.794,3.202c-2.044,1.424-3.374,4.177-3.994,8.26c-0.62,4.089-1.022,11.994-1.199,23.722
			c-0.177,11.462-0.863,20.856-2.068,28.188c-1.199,7.326-3.557,13.571-7.06,18.723C50.788,119.223,45.701,123.885,39.042,128.062z"
			/>
	</g>
	<g>
		<path d="M201.691,114.077c-3.51-5.152-5.861-11.397-7.06-18.723c-1.199-7.332-1.879-16.726-2.068-28.188
			c-0.171-11.728-0.579-19.633-1.199-23.722c-0.614-4.083-1.95-6.842-3.994-8.26c-2.044-1.418-5.642-2.487-10.794-3.202
			c-3.468-0.443-6.281-2.044-8.467-4.798c-2.168-2.753-3.267-6.529-3.267-11.326C164.841,5.288,171.37,0,184.433,0
			c12.52,0,22.54,3.663,30.05,10.995s11.391,17.122,11.663,29.382c0.354,19.816,0.614,32.318,0.804,37.518
			c0.171,5.193,0.821,9.991,1.926,14.393c1.111,4.402,3.025,8,5.737,10.794c2.706,2.801,7.261,6.198,13.654,10.192
			c5.158,3.291,7.734,8.224,7.734,14.794c0,4.532-0.886,7.84-2.665,9.932s-4.774,4.443-8.987,7.06
			c-4.224,2.617-7.639,5.442-10.263,8.461c-2.617,3.025-4.597,7.509-5.932,13.459c-0.532,2.399-0.928,7.687-1.193,15.864
			c-0.272,8.171-0.538,19.007-0.804,32.513c-0.089,8-1.861,15.084-5.329,21.258c-3.468,6.174-8.372,10.948-14.723,14.328
			c-6.351,3.374-13.571,5.058-21.654,5.058c-13.063,0-19.592-5.371-19.592-16.124c0-4.62,1.111-8.354,3.332-11.196
			c2.222-2.842,5.022-4.49,8.396-4.933c4.089-0.62,6.978-1.264,8.662-1.932c1.69-0.662,3.131-2.092,4.331-4.266
			c1.193-2.174,2.003-5.353,2.393-9.524c0.402-4.177,0.603-10.664,0.603-19.456c0-11.728,0.715-21.341,2.133-28.856
			c1.418-7.509,3.911-13.678,7.468-18.522c3.557-4.845,8.484-9.217,14.788-13.128C210.288,123.891,205.201,119.229,201.691,114.077z
			"/>
	</g>
</g>
</svg>
