<?xml version="1.0" encoding="utf-8"?>
<!-- Generator: Adobe Illustrator 19.1.0, SVG Export Plug-In . SVG Version: 6.00 Build 0)  -->
<!DOCTYPE svg PUBLIC "-//W3C//DTD SVG 1.1//EN" "http://www.w3.org/Graphics/SVG/1.1/DTD/svg11.dtd">
<svg version="1.1" id="Layer_1" xmlns="http://www.w3.org/2000/svg" xmlns:xlink="http://www.w3.org/1999/xlink" x="0px" y="0px"
	 width="256px" height="256px" viewBox="0 0 256 256" enable-background="new 0 0 256 256" xml:space="preserve">
<g>
	<g>
		<path d="M245.345,116.661h-1.491l-37.812,0.09l-1.833,0.026c-5.802,0.458-10.384,5.331-10.371,11.262
			c0,6.234,5.053,11.275,11.288,11.3h40.497c5.821-0.51,10.391-5.395,10.378-11.346
			C255.987,121.966,251.295,117.029,245.345,116.661z M190.553,81.533l0.026-0.026l27.183-27.125l1.433-1.459
			c3.756-4.447,3.504-11.146-0.691-15.341c-4.266-4.247-11.087-4.427-15.566-0.484l-1.039,1.058l-26.673,26.783l-1.278,1.291
			c-3.775,4.434-3.575,11.094,0.626,15.295C178.981,85.935,186.138,85.935,190.553,81.533z M127.997,0.145
			c-6.041,0-10.991,4.705-11.365,10.636l0.006,1.497l0.11,37.761v1.826c0.484,5.815,5.357,10.384,11.281,10.384
			c6.247,0,11.307-5.053,11.307-11.281v-0.052l0.019-38.361V10.51C138.839,4.689,133.941,0.145,127.997,0.145z M81.446,65.476
			L54.302,38.351l-1.459-1.452c-4.466-3.737-11.158-3.511-15.36,0.691c-4.272,4.266-4.434,11.1-0.497,15.547l1.052,1.058
			l26.815,26.622l1.297,1.291c4.453,3.782,11.133,3.556,15.321-0.62c4.421-4.434,4.421-11.559,0.013-15.967L81.446,65.476z
			 M51.772,139.217c5.821-0.452,10.397-5.324,10.397-11.255c-0.013-6.254-5.06-11.281-11.294-11.3h-40.51
			C4.55,117.171-0.013,122.056,0,127.987c0,6.047,4.698,10.971,10.649,11.346h1.491l37.812-0.123h1.82V139.217z M65.434,174.447
			l-0.032,0.045l-27.17,27.131l-1.439,1.433c-3.743,4.466-3.511,11.158,0.691,15.34c4.279,4.259,11.088,4.44,15.566,0.51
			l1.052-1.065l26.667-26.783l1.284-1.284c3.775-4.44,3.569-11.126-0.626-15.302C76.993,170.065,69.855,170.065,65.434,174.447z
			 M139.233,204.141c-0.465-5.808-5.35-10.384-11.275-10.384c-6.254,0-11.307,5.053-11.307,11.281v0.045l-0.019,38.367l0.006,2.046
			c0.516,5.795,5.402,10.358,11.359,10.358c6.041,0,10.971-4.711,11.359-10.636v-1.497l-0.123-37.761V204.141z M217.949,201.811
			l-26.822-26.622l-1.284-1.291c-4.447-3.782-11.133-3.575-15.328,0.626c-4.414,4.408-4.421,11.552-0.006,15.967l0.039,0.045
			l27.138,27.131l1.459,1.42c4.479,3.763,11.165,3.53,15.36-0.665c4.272-4.285,4.434-11.094,0.51-15.553L217.949,201.811z"/>
	</g>
</g>
</svg>
