<?xml version="1.0" encoding="utf-8"?>
<!-- Generator: Adobe Illustrator 19.1.0, SVG Export Plug-In . SVG Version: 6.00 Build 0)  -->
<!DOCTYPE svg PUBLIC "-//W3C//DTD SVG 1.1//EN" "http://www.w3.org/Graphics/SVG/1.1/DTD/svg11.dtd">
<svg version="1.1" id="Layer_1" xmlns="http://www.w3.org/2000/svg" xmlns:xlink="http://www.w3.org/1999/xlink" x="0px" y="0px"
	 width="256px" height="256px" viewBox="0 0 256 256" enable-background="new 0 0 256 256" xml:space="preserve">
<path d="M208.351,112h-24.964c-5.961,0-11.223,5.213-12.907,10.939l-17.98,61.804l-33.49-174.005
	c-1.169-6.099-6.364-10.44-12.57-10.751c-6.359-0.117-11.81,2.502-13.565,8.448L62.068,112H47.136C39.735,112,34,119.695,34,127.096
	v1.392C34,135.889,39.735,143,47.136,143h25.001c5.981,0,11.233-4.696,12.917-10.422l17.991-61.537l33.465,174.13
	c1.184,6.104,6.369,10.51,12.58,10.821c0.23,0.005,0.434-0.037,0.659-0.037c5.951,0,11.213-3.172,12.902-8.924L193.466,143h14.885
	c7.401,0,13.649-6.648,13.649-14.049v-1.391C222,120.159,215.751,112,208.351,112z"/>
</svg>
