<?xml version="1.0" standalone="no"?>
<!DOCTYPE svg PUBLIC "-//W3C//DTD SVG 20010904//EN"
 "http://www.w3.org/TR/2001/REC-SVG-20010904/DTD/svg10.dtd">
<svg version="1.0" xmlns="http://www.w3.org/2000/svg"
 width="512.000000pt" height="512.000000pt" viewBox="0 0 512.000000 512.000000"
 preserveAspectRatio="xMidYMid meet">
<metadata>
Created by potrace 1.11, written by Peter Selinger 2001-2013
</metadata>
<g transform="translate(0.000000,512.000000) scale(0.100000,-0.100000)"
fill="#000000" stroke="none">
<path d="M0 2560 l0 -2560 2560 0 2560 0 0 2560 0 2560 -2560 0 -2560 0 0
-2560z m2690 1620 l0 -490 -480 0 -480 0 0 490 0 490 480 0 480 0 0 -490z
m1570 -760 l0 -990 -70 0 -70 0 0 200 0 200 -325 0 c-311 0 -325 1 -325 19 0
10 -11 62 -24 114 -85 334 -326 596 -638 693 l-58 18 0 368 0 368 755 0 755 0
0 -990z m-2590 440 l0 -240 110 0 110 0 0 -880 c0 -484 -2 -880 -5 -880 -3 0
-95 52 -205 117 l-200 116 0 1004 0 1003 95 0 95 0 0 -240z m2380 -2035 l0
-935 -855 0 -855 0 0 310 0 310 50 0 c91 0 243 21 339 46 182 47 316 122 442
244 209 205 310 470 312 823 l1 137 283 0 283 0 0 -935z m-2410 99 l250 -146
0 -132 c0 -73 -3 -207 -6 -297 l-7 -165 -240 -139 c-132 -77 -246 -141 -253
-143 -6 -2 -125 63 -263 144 l-251 147 0 147 c0 81 3 214 6 297 l7 149 241
141 c133 78 247 142 254 142 7 1 125 -65 262 -145z m632 -751 l3 -348 183 -3
c180 -2 182 -3 182 -25 0 -15 -49 -71 -157 -179 l-158 -158 -205 0 -205 0
-157 157 -158 158 0 85 0 86 173 100 172 100 3 187 2 187 160 0 160 0 2 -347z"/>
</g>
</svg>
